Day,Time,Programas,Host
seg,00:00 às 05:00,CBN Madrugada,Andrea Ferreira
seg,05:00 às 06:00,CBN Primeiras Notícias,Frederico Goulart
seg,06:00 às 10:00,Jornal da CBN,Mílton Jung
seg,10:00 às 12:00,CBN BH,Guilherme Ibrahim e Shirley Souza
seg,10:00 às 12:00,CBN RJ,Bianca Santos
seg,10:00 às 12:00,CBN SP,Fabíola Cidral
seg,10:00 às 12:00,CBN BSB,Brunno Melo
seg,12:00 às 14:00,CBN Brasil,Carlos Alberto Sardenberg
seg,14:00 às 17:00,Estúdio CBN,Fernando Andrade
seg,17:00 às 20:00,Jornal da CBN 2ª Edição,Roberto Nonato
seg,20:00 às 21:00,Quatro em Campo,Carlos Eduardo Eboli e Paulo Massini e Francisco Aiello e André Sanches
seg,21:00 às 23:30,CBN Noite Total,Tania Morales
seg,23:30 às 00:00,Lado B da Bola,Gabriel Dudziak e Mario Marra e Roberto Nonato
ter,00:00 às 05:00,CBN Madrugada,Andrea Ferreira
ter,05:00 às 06:00,CBN Primeiras Notícias,Frederico Goulart
ter,06:00 às 10:00,Jornal da CBN,Mílton Jung
ter,10:00 às 12:00,CBN BH,Guilherme Ibrahim e Shirley Souza
ter,12:00 às 14:00,CBN Brasil,Carlos Alberto Sardenberg
ter,14:00 às 17:00,Estúdio CBN,Fernando Andrade
ter,17:00 às 20:00,Jornal da CBN 2ª Edição,Roberto Nonato
ter,20:00 às 21:00,Quatro em Campo,Carlos Eduardo Eboli e Paulo Massini e Francisco Aiello e André Sanches
ter,21:00 às 00:00,CBN Noite Total,Tania Morales
qua,00:00 às 05:00,CBN Madrugada,Andrea Ferreira
qua,05:00 às 06:00,CBN Primeiras Notícias,Frederico Goulart
qua,06:00 às 10:00,Jornal da CBN,Mílton Jung
qua,10:00 às 12:00,CBN BH,Guilherme Ibrahim e Shirley Souza
qua,12:00 às 14:00,CBN Brasil,Carlos Alberto Sardenberg
qua,14:00 às 17:00,Estúdio CBN,Fernando Andrade
qua,17:00 às 20:00,Jornal da CBN 2ª Edição,Roberto Nonato
qua,20:00 às 21:00,Quatro em Campo,Carlos Eduardo Eboli e Paulo Massini e Francisco Aiello e André Sanches
qua,21:00 às 00:00,CBN Noite Total,Tania Morales
qui,00:00 às 05:00,CBN Madrugada,Andrea Ferreira
qui,05:00 às 06:00,CBN Primeiras Notícias,Frederico Goulart
qui,06:00 às 10:00,Jornal da CBN,Mílton Jung
qui,10:00 às 12:00,CBN BH,Guilherme Ibrahim e Shirley Souza
qui,12:00 às 14:00,CBN Brasil,Carlos Alberto Sardenberg
qui,14:00 às 17:00,Estúdio CBN,Fernando Andrade
qui,17:00 às 20:00,Jornal da CBN 2ª Edição,Roberto Nonato
qui,20:00 às 21:00,Quatro em Campo,Carlos Eduardo Eboli e Paulo Massini e Francisco Aiello e André Sanches
qui,21:00 às 00:00,CBN Noite Total,Tania Morales
sex,00:00 às 05:00,CBN Madrugada,Andrea Ferreira
sex,05:00 às 06:00,CBN Primeiras Notícias,Frederico Goulart
sex,06:00 às 10:00,Jornal da CBN,Mílton Jung
sex,10:00 às 12:00,CBN BH,Guilherme Ibrahim e Shirley Souza
sex,12:00 às 14:00,CBN Brasil,Carlos Alberto Sardenberg
sex,14:00 às 17:00,Estúdio CBN,Fernando Andrade
sex,17:00 às 18:30,Jornal da CBN 2ª Edição,Roberto Nonato
sex,18:30 às 20:00,Fim de Expediente,Dan Stulbach e José Godoy e Luiz Gustavo Medina
sex,20:00 às 21:00,Quatro em Campo,Carlos Eduardo Eboli e Paulo Massini e Francisco Aiello e André Sanches
sex,21:00 às 00:00,CBN Noite Total,Tania Morales
sab,00:00 às 05:00,CBN Madrugada,Andrea Ferreira
sab,05:00 às 06:00,CBN Primeiras Notícias,Frederico Goulart
sab,06:00 às 09:00,Jornal da CBN,Mílton Jung
sab,09:00 às 09:30,O Mundo em Meia Hora,Roberto Nonato
sab,09:30 às 10:00,50 mais CBN,Alexandre Kalache e Debora Freitas
sab,10:00 às 12:00,CBN BH,Guilherme Ibrahim e Shirley Souza
sab,12:00 às 15:00,Revista CBN,Petria Chaves
sab,15:00 às 20:30,Show da Notícia e/ou Futebol,
sab,20:30 às 21:00,CBN Gerações,Cássia Godoy
sab,21:00 às 23:00,CBN Noite Total,Tania Morales
sab,23:00 às 00:00,Globo News Painel,
dom,00:00 às 05:00,CBN Madrugada,Andrea Ferreira
dom,05:00 às 06:00,CBN Primeiras Notícias,Frederico Goulart
dom,06:00 às 09:00,Jornal da CBN,Mílton Jung
dom,09:00 às 12:00,CBN Esportes,Carlos Eduardo Eboli
dom,12:00 às 15:00,Revista CBN,Petria Chaves
dom,15:00 às 21:00,Show da Notícia e/ou Futebol,
dom,21:00 às 21:30,50 mais CBN,Alexandre Kalache e Debora Freitas
dom,21:30 às 00:00,CBN Noite Total,Tania Morales
